{
  "dev": {
    "awscloudformation": {
      "AuthRoleName": "amplify-petmanager-dev-132804-authRole",
      "UnauthRoleArn": "arn:aws:iam::112110792834:role/amplify-petmanager-dev-132804-unauthRole",
      "AuthRoleArn": "arn:aws:iam::112110792834:role/amplify-petmanager-dev-132804-authRole",
      "Region": "us-east-1",
      "DeploymentBucketName": "amplify-petmanager-dev-132804-deployment",
      "UnauthRoleName": "amplify-petmanager-dev-132804-unauthRole",
      "StackName": "amplify-petmanager-dev-132804",
      "StackId": "arn:aws:cloudformation:us-east-1:112110792834:stack/amplify-petmanager-dev-132804/4a5403e0-1b01-11ec-a581-0ebf48318e4d",
      "AmplifyAppId": "d3t3m8b7t91j9e"
    },
    "categories": {
      "auth": {
        "petmanager290f1c32": {}
      }
    }
  }
}